2
One G 0 1340 8
yes B 0 780 34
AL BANK 0
ML One 0
MKV BANK 0
ECH BANK 0
PAS One 0
HH BANK 0
RCH BANK 0
PAC BANK 0
DWE BANK 0
CPH BANK 0
UWP BANK 0
LHI BANK 0
BMH BANK 0
OPT BANK 0
EV1 BANK 0
EV2 BANK 0
EV3 BANK 0
V1 BANK 0
PHYS BANK 0
B1 BANK 0
CIF BANK 0
B2 BANK 0
EIT BANK 0
ESC BANK 0
C2 yes 0
REV BANK 0
MC BANK 0
DC yes 0
